<svg width="36" height="36" viewBox="0 0 36 36" fill="none" xmlns="http://www.w3.org/2000/svg">
<path fill-rule="evenodd" clip-rule="evenodd" d="M18 0C8.05888 0 0 8.05888 0 18C0 27.9411 8.05888 36 18 36C27.9411 36 36 27.9411 36 18V0H18ZM16.3 6.3C10.7771 6.3 6.3 10.7771 6.3 16.3V19.7C6.3 25.2228 10.7771 29.7 16.3 29.7H19.88C25.4028 29.7 29.88 25.2229 29.88 19.7V6.3H16.3Z" fill="white"/>
<rect x="14" y="14" width="8.84211" height="7.8" fill="white"/>
</svg>
